Running plausibility checks • mwana
…
Just as in WFHZ wrangler, under the hood,
mw_wrangle_muac() computes the z-scores then identifies
outliers and flags them. These are stored in the mfaz and
flag_mfaz variables that are created and added to the data
set.

The above code returns:

## =======================================================================================================

## # A tibble: 1,191 × 14
##    area       dos        cluster  team   sex dob      age weight height edema  muac age_days   mfaz
##    <chr>      <date>       <int> <int> <dbl> <date> <int>  <dbl>  <dbl> <chr> <dbl>    <dbl>  <dbl>
##  1 District E 2023-12-04       1     3     1 NA        59   15.6  109.  n      14.6    1796. -1.45 
##  2 District E 2023-12-04       1     3     1 NA         8    7.5   68.6 n      12.7     244. -1.67 
##  3 District E 2023-12-04       1     3     1 NA        19    9.7   79.5 n      14.2     578. -0.617
##  4 District E 2023-12-04       1     3     2 NA        49   14.3  100.  n      14.9    1491. -1.02 
##  5 District E 2023-12-04       1     3     2 NA        32   12.4   92.1 n      14.3     974  -0.93 
##  6 District E 2023-12-04       1     3     2 NA        17    9.3   77.8 n      13.2     517. -1.10 
##  7 District E 2023-12-04       1     3     2 NA        20   10.1   80.4 n      14.3     609. -0.255
##  8 District E 2023-12-04       1     3     2 NA        27   11.7   87.1 n      14.3     822. -0.677
##  9 District E 2023-12-04       1     3     1 NA        46   13.6   98   n      13.5    1400. -2.18 
## 10 District E 2023-12-04       1     3     1 NA        58   17.2  109.  n      15.9    1765. -0.403
## # ℹ 1,181 more rows
## # ℹ 1 more variable: flag_mfaz <dbl>
…
We will continue using the same data set:

anthro.01 |>
  mw_wrangle_muac(
    sex = sex,
    muac = muac,
    age = NULL,
    .recode_sex = TRUE,
    .recode_muac = FALSE,
    .to = "none"
  )

This returns:

## # A tibble: 1,191 × 12
##    area       dos        cluster  team   sex dob      age weight height edema  muac flag_muac
##    <chr>      <date>       <int> <int> <dbl> <date> <int>  <dbl>  <dbl> <chr> <int>     <dbl>
##  1 District E 2023-12-04       1     3     1 NA        59   15.6  109.  n       146         0
##  2 District E 2023-12-04       1     3     1 NA         8    7.5   68.6 n       127         0
##  3 District E 2023-12-04       1     3     1 NA        19    9.7   79.5 n       142         0
##  4 District E 2023-12-04       1     3     2 NA        49   14.3  100.  n       149         0
##  5 District E 2023-12-04       1     3     2 NA        32   12.4   92.1 n       143         0
##  6 District E 2023-12-04       1     3     2 NA        17    9.3   77.8 n       132         0
##  7 District E 2023-12-04       1     3     2 NA        20   10.1   80.4 n       143         0
##  8 District E 2023-12-04       1     3     2 NA        27   11.7   87.1 n       143         0
##  9 District E 2023-12-04       1     3     1 NA        46   13.6   98   n       135         0
## 10 District E 2023-12-04       1     3     1 NA        58   17.2  109.  n       159         0
## # ℹ 1,181 more rows
…
