Wrangle weight-for-height and MUAC data — process_wfhz_data • mwana
…
    Examples

## An example application of `process_wfhz_data()` ----

anthro.01 |>
process_wfhz_data(
sex = sex,
weight = weight,
height = height,
.recode_sex = TRUE
)
#> ================================================================================
#> # A tibble: 1,191 × 13
#>    area      dos        cluster  team   sex dob      age weight height edema
#>    <chr>     <date>       <int> <int> <dbl> <date> <int>  <dbl>  <dbl> <chr>
#>  1 District… 2023-12-04       1     3     1 NA        59   15.6  109.  n    
#>  2 District… 2023-12-04       1     3     1 NA         8    7.5   68.6 n    
#>  3 District… 2023-12-04       1     3     1 NA        19    9.7   79.5 n    
#>  4 District… 2023-12-04       1     3     2 NA        49   14.3  100.  n    
#>  5 District… 2023-12-04       1     3     2 NA        32   12.4   92.1 n    
#>  6 District… 2023-12-04       1     3     2 NA        17    9.3   77.8 n    
#>  7 District… 2023-12-04       1     3     2 NA        20   10.1   80.4 n    
#>  8 District… 2023-12-04       1     3     2 NA        27   11.7   87.1 n    
#>  9 District… 2023-12-04       1     3     1 NA        46   13.6   98   n    
#> 10 District… 2023-12-04       1     3     1 NA        58   17.2  109.  n    
#> # ℹ 1,181 more rows
#> # ℹ 3 more variables: muac <int>, wfhz <dbl>, flag_wfhz <dbl>
…
