Estimating the prevalence of wasting • mwana
…
This is to get the wfhz and flag_wfhz the mfaz and flag_mfaz added to the data set. In the output below, we have just selected these columns:

#> ================================================================================
#> ================================================================================
#> # A tibble: 1,191 × 5
#>    area         wfhz flag_wfhz   mfaz flag_mfaz
#>    <chr>       <dbl>     <dbl>  <dbl>     <dbl>
#>  1 District E -1.83          0 -1.45          0
#>  2 District E -0.956         0 -1.67          0
#>  3 District E -0.796         0 -0.617         0
#>  4 District E -0.74          0 -1.02          0
#>  5 District E -0.679         0 -0.93          0
#>  6 District E -0.432         0 -1.10          0
#>  7 District E -0.078         0 -0.255         0
#>  8 District E -0.212         0 -0.677         0
#>  9 District E -1.07          0 -2.18          0
#> 10 District E -0.543         0 -0.403         0
#> # ℹ 1,181 more rows
…
